10010:
2.3
2.2
2.2
3.0
2.6
2.3
2.4
2.3
2.0
2.5
2.0
2.0
2.1
1.9
2.8
2.2
2.1
2.6
1.5
2.3
1.9
2.0
2.1
10011:
4.4
4.1
10012:
3.1
3.8
3.0
3.1
3.5
3.6
2.6
3.2
3.0
3.2
3.6
3.1
3.0
10013:
3.5
3.2
3.4
3.6
3.3
3.4
3.2
3.4
3.2
3.6
2.9
3.8
3.2
3.5
3.1
3.2
2.9
3.1
3.3
2.9
3.0
2.8
3.2
3.5
3.5
3.2
3.3
2.7
2.9
3.3
3.1
2.8
3.0
3.6
3.1
3.0
3.3
3.7
3.6
2.8
3.8
3.3
3.4
3.3
3.4
2.8
3.2
3.4
3.0
3.5
3.0
3.1
3.4
3.6
3.2
2.8
3.6
10014:
3.1
3.8
2.7
3.5
3.1
1002:
3.2
2.9
3.3
3.4
3.4
3.4
3.7
2.6
3.4
3.4
3.8
3.4
3.3
3.0
10020:
3.9
4.0
3.7
4.1
3.8
3.7
3.9
4.2
4.1
3.9
3.9
4.5
3.8
4.0
4.0
3.9
4.2
3.6
4.1
3.6
4.2
3.4
3.8
3.7
3.4
2.9
4.1
10021:
2.1
2.4
2.5
2.7
10022:
2.4
3.2
3.0
2.8
3.2
3.2
2.7
2.7
10023:
3.9
3.8
3.8
3.5
4.5
3.6
3.4
3.7
3.5
3.8
4.2
10024:
3.4
3.8
3.3
3.7
3.4
3.1
3.1
3.2
3.6
3.7
10025:
2.9
10027:
4.4
3.7
3.6
3.7
3.2
3.7
3.6
4.1
3.5
4.0
3.8
3.8
4.0
RMSE: 0.94
